[
  {
    "label": "fruit",
    "title": "Apple",
    "content": "Lorem ipsum dolor sit amet, consectetur adipisicing elit. A alias, aliquam autem beatae corporis culpa cum cupiditate dolores est et facere facilis in ipsum laborum minus optio ratione rem unde!",
    "link": "/details/apple"
  },
  {
    "label": "vegetable",
    "title": "Aubergine",
    "content": "Lorem ipsum dolor sit amet, consectetur adipisicing elit. A alias, aliquam autem beatae corporis culpa cum cupiditate dolores est et facere facilis in ipsum laborum minus optio ratione rem unde!",
    "link": "/details/aubergine"
  },
  {
    "label": "fruit",
    "title": "Banana",
    "content": "Lorem ipsum dolor sit amet, consectetur adipisicing elit. A alias, aliquam autem beatae corporis culpa cum cupiditate dolores est et facere facilis in ipsum laborum minus optio ratione rem unde!",
    "link": "/details/banana"
  },
  {
    "label": "vegetable",
    "title": "Broccoli",
    "content": "Lorem ipsum dolor sit amet, consectetur adipisicing elit. A alias, aliquam autem beatae corporis culpa cum cupiditate dolores est et facere facilis in ipsum laborum minus optio ratione rem unde!",
    "link": "/details/broccoli"
  },
  {
    "label": "meat",
    "title": "Chicken",
    "content": "Lorem ipsum dolor sit amet, consectetur adipisicing elit. A alias, aliquam autem beatae corporis culpa cum cupiditate dolores est et facere facilis in ipsum laborum minus optio ratione rem unde!",
    "link": "/details/chicken"
  },
  {
    "label": "fruit",
    "title": "Orange",
    "content": "Lorem ipsum dolor sit amet, consectetur adipisicing elit. A alias, aliquam autem beatae corporis culpa cum cupiditate dolores est et facere facilis in ipsum laborum minus optio ratione rem unde!",
    "link": "/details/orange"
  },
  {
    "label": "meat",
    "title": "Beef",
    "content": "Lorem ipsum dolor sit amet, consectetur adipisicing elit. A alias, aliquam autem beatae corporis culpa cum cupiditate dolores est et facere facilis in ipsum laborum minus optio ratione rem unde!",
    "link": "/details/beef"
  },
  {
    "label": "vegetable",
    "title": "Zucchini",
    "content": "Lorem ipsum dolor sit amet, consectetur adipisicing elit. A alias, aliquam autem beatae corporis culpa cum cupiditate dolores est et facere facilis in ipsum laborum minus optio ratione rem unde!",
    "link": "/details/zucchini"
  }
]
